{
  "project_info": {
    "project_number": "61315016882",
    "project_id": "efsg-trading",
    "storage_bucket": "efsg-trading.appspot.com"
  },
  "client": [
    {
      "client_info": {
        "mobilesdk_app_id": "1:61315016882:android:1238299c4544f7f7f1f0a1",
        "android_client_info": {
          "package_name": "com.efsg.eiehktrading.android"
        }
      },
      "oauth_client": [
        {
          "client_id": "61315016882-d0fiotj2047r5v4nj5it8tiblrtbfull.apps.googleusercontent.com",
          "client_type": 3
        }
      ],
      "api_key": [
        {
          "current_key": "AIzaSyBG4AQpaWAHKLqoe_0Xn_mY3kcRF34Sey0"
        }
      ],
      "services": {
        "appinvite_service": {
          "other_platform_oauth_client": [
            {
              "client_id": "61315016882-d0fiotj2047r5v4nj5it8tiblrtbfull.apps.googleusercontent.com",
              "client_type": 3
            },
            {
              "client_id": "61315016882-1pb3d1vqjn0b09nlt7f0te19c32ahgb2.apps.googleusercontent.com",
              "client_type": 2,
              "ios_info": {
                "bundle_id": "com.efsg.emxprotrading.ios"
              }
            }
          ]
        }
      }
    },
    {
      "client_info": {
        "mobilesdk_app_id": "1:61315016882:android:99e24a0af9acf5d2f1f0a1",
        "android_client_info": {
          "package_name": "com.efsg.emxprotrading.android"
        }
      },
      "oauth_client": [
        {
          "client_id": "61315016882-d0fiotj2047r5v4nj5it8tiblrtbfull.apps.googleusercontent.com",
          "client_type": 3
        }
      ],
      "api_key": [
        {
          "current_key": "AIzaSyBG4AQpaWAHKLqoe_0Xn_mY3kcRF34Sey0"
        }
      ],
      "services": {
        "appinvite_service": {
          "other_platform_oauth_client": [
            {
              "client_id": "61315016882-d0fiotj2047r5v4nj5it8tiblrtbfull.apps.googleusercontent.com",
              "client_type": 3
            },
            {
              "client_id": "61315016882-1pb3d1vqjn0b09nlt7f0te19c32ahgb2.apps.googleusercontent.com",
              "client_type": 2,
              "ios_info": {
                "bundle_id": "com.efsg.emxprotrading.ios"
              }
            }
          ]
        }
      }
    }
  ],
  "configuration_version": "1"
}